%YAML 1.1
%TAG !u! tag:unity3d.com,2011:
--- !u!1045 &1
EditorBuildSettings:
  m_ObjectHideFlags: 0
  serializedVersion: 2
  m_Scenes: []
  m_configObjects:
    com.unity.input.settings: {fileID: 11400000, guid: 40f1678f288bcd84b956adb01cc9121d,
      type: 2}
